…
``` r
store <- as.tibble(store_data)
```

    ## Warning: `as.tibble()` is deprecated, use `as_tibble()` (but mind the new semantics).
    ## This warning is displayed once per session.

``` r
store
```

    ## # A tibble: 120 x 13
    ##    store_id date       employees floors sq_footage_p_fl… general_manager
    ##       <dbl> <date>         <dbl>  <dbl>            <dbl>           <dbl>
    ##  1       37 2017-01-15         8      8            5149.               0
    ##  2       37 2017-02-14         8      8            5149.               0
    ##  3       37 2017-03-16         9      8            5149.               0
    ##  4       37 2017-04-15        10      8            5149.               0
    ##  5       37 2017-05-15        11      8            5149.               0
    ##  6       37 2017-06-14        11      8            5149.               0
    ##  7       37 2017-07-14        10      8            5149.               0
    ##  8       37 2017-08-13        10      8            5149.               0
    ##  9       37 2017-09-12         9      8            5149.               0
    ## 10       37 2017-10-12         9      8            5149.               0
    ## # … with 110 more rows, and 7 more variables:
    ## #   monthly_average_revenue <dbl>, average_customer_age <dbl>,
    ## #   age_of_store <dbl>, total_sq_foot <dbl>, month <dbl>,
    ## #   complaints <dbl>, log_sq_foot_1e4 <dbl>
…
